<?xml version="1.0" encoding="utf-8"?>
<!-- Generator: Adobe Illustrator 20.0.0, SVG Export Plug-In . SVG Version: 6.00 Build 0)  -->
<!DOCTYPE svg PUBLIC "-//W3C//DTD SVG 1.1//EN" "http://www.w3.org/Graphics/SVG/1.1/DTD/svg11.dtd" [
	<!ENTITY st0 "fill:#A1A1A2;">
]>
<svg version="1.1" id="Layer_1" xmlns="http://www.w3.org/2000/svg" xmlns:xlink="http://www.w3.org/1999/xlink" x="0px" y="0px"
	 viewBox="0 0 46 46" style="enable-background:new 0 0 46 46;" xml:space="preserve">
<g id="Layer_2">
</g>
<g id="Layer_1_1_" xmlns:sketch="http://www.bohemiancoding.com/sketch/ns">
	<g>
		<path style="&st0;" d="M30,22c-0.028,0-0.051,0.013-0.078,0.016C29.441,18.622,26.524,16,23,16s-6.441,2.622-6.922,6.016
			C16.051,22.013,16.028,22,16,22H8c-0.553,0-1,0.447-1,1s0.447,1,1,1h8c0.028,0,0.051-0.013,0.078-0.016
			C16.559,27.378,19.476,30,23,30s6.441-2.622,6.922-6.016C29.949,23.987,29.972,24,30,24h8c0.553,0,1-0.447,1-1s-0.447-1-1-1H30z
			 M23,28c-2.757,0-5-2.243-5-5s2.243-5,5-5s5,2.243,5,5S25.757,28,23,28z"/>
		<path style="&st0;" d="M44.327,14.374c-0.207-0.513-0.791-0.76-1.302-0.552c-0.512,0.207-0.759,0.79-0.552,1.302
			C43.486,17.627,44,20.276,44,23c0,11.579-9.421,21-21,21S2,34.579,2,23S11.421,2,23,2c4.253,0,8.303,1.265,11.788,3.639
			C34.284,6.321,34,7.136,34,8c0,1.068,0.416,2.073,1.172,2.828C35.927,11.584,36.932,12,38,12s2.073-0.416,2.828-1.172
			C41.584,10.073,42,9.068,42,8s-0.416-2.073-1.172-2.828c-1.145-1.146-2.936-1.419-4.394-0.827C32.503,1.509,27.872,0,23,0
			C10.317,0,0,10.317,0,23s10.317,23,23,23s23-10.317,23-23C46,20.019,45.438,17.116,44.327,14.374z M39.414,6.586
			C39.792,6.964,40,7.466,40,8s-0.208,1.036-0.586,1.414c-0.756,0.756-2.072,0.756-2.828,0C36.208,9.036,36,8.534,36,8
			s0.208-1.036,0.586-1.414S37.466,6,38,6S39.036,6.208,39.414,6.586z"/>
	</g>
</g>
<g id="Layer_3">
</g>
</svg>
