<?xml version="1.0" encoding="utf-8"?>
<!-- Generator: Adobe Illustrator 20.0.0, SVG Export Plug-In . SVG Version: 6.00 Build 0)  -->
<!DOCTYPE svg PUBLIC "-//W3C//DTD SVG 1.1//EN" "http://www.w3.org/Graphics/SVG/1.1/DTD/svg11.dtd" [
	<!ENTITY st0 "fill:#E14329;">
]>
<svg version="1.1" id="Layer_1" xmlns="http://www.w3.org/2000/svg" xmlns:xlink="http://www.w3.org/1999/xlink" x="0px" y="0px"
	 viewBox="0 0 76 76" style="enable-background:new 0 0 76 76;" xml:space="preserve">
<g id="Layer_2">
</g>
<g id="Layer_1_1_" xmlns:sketch="http://www.bohemiancoding.com/sketch/ns">
	<g>
		<path style="&st0;" d="M67.7,10h-6.751C60.442,4.402,55.728,0,50,0c-6.065,0-11,4.935-11,11s4.935,11,11,11
			c5.728,0,10.442-4.402,10.949-10H67.7c1.269,0,2.3,0.987,2.3,2.2v57.6c0,1.213-1.031,2.2-2.3,2.2H8.3C7.031,74,6,73.013,6,71.8
			V14.2C6,12.987,7.031,12,8.3,12h15.155c0.553,0,1-0.447,1-1s-0.447-1-1-1H8.3C5.929,10,4,11.884,4,14.2v57.6
			C4,74.116,5.929,76,8.3,76h59.4c2.371,0,4.3-1.884,4.3-4.2V14.2C72,11.884,70.071,10,67.7,10z M50,20c-4.963,0-9-4.037-9-9
			s4.037-9,9-9s9,4.037,9,9S54.963,20,50,20z"/>
		<path style="&st0;" d="M21.293,29.293c-0.391,0.391-0.391,1.023,0,1.414l12.975,12.975L21.293,56.656
			c-0.391,0.391-0.391,1.023,0,1.414c0.195,0.195,0.451,0.293,0.707,0.293s0.512-0.098,0.707-0.293l13.682-13.682
			c0.391-0.391,0.391-1.023,0-1.414L22.707,29.293C22.316,28.902,21.684,28.902,21.293,29.293z"/>
		<path style="&st0;" d="M54,59c0.553,0,1-0.447,1-1s-0.447-1-1-1H42c-0.553,0-1,0.447-1,1s0.447,1,1,1H54z"/>
	</g>
</g>
<g id="Layer_3">
</g>
</svg>
