<?xml version="1.0" encoding="utf-8"?>
<!-- Generator: Adobe Illustrator 20.0.0, SVG Export Plug-In . SVG Version: 6.00 Build 0)  -->
<!DOCTYPE svg PUBLIC "-//W3C//DTD SVG 1.1//EN" "http://www.w3.org/Graphics/SVG/1.1/DTD/svg11.dtd" [
	<!ENTITY st0 "fill:#A1A1A2;">
]>
<svg version="1.1" id="Layer_1" xmlns="http://www.w3.org/2000/svg" xmlns:xlink="http://www.w3.org/1999/xlink" x="0px" y="0px"
	 viewBox="0 0 46 46" style="enable-background:new 0 0 46 46;" xml:space="preserve">
<g id="Layer_2">
</g>
<g id="Layer_1_1_" xmlns:sketch="http://www.bohemiancoding.com/sketch/ns">
	<g>
		<path style="&st0;" d="M19,5h26c0.553,0,1-0.447,1-1s-0.447-1-1-1H19c-0.553,0-1,0.447-1,1S18.447,5,19,5z"/>
		<path style="&st0;" d="M19,9h14c0.553,0,1-0.447,1-1s-0.447-1-1-1H19c-0.553,0-1,0.447-1,1S18.447,9,19,9z"/>
		<path style="&st0;" d="M5.57,9.196L5.57,9.196L5.57,9.196l0.01,0.009C5.641,9.26,5.713,9.291,5.782,9.328
			C5.82,9.349,5.854,9.382,5.895,9.397C6.009,9.441,6.129,9.463,6.25,9.463c0.135,0,0.27-0.028,0.396-0.082
			C6.684,9.365,6.712,9.33,6.748,9.309C6.831,9.26,6.915,9.216,6.983,9.143l2.714-2.926c0.375-0.404,0.352-1.037-0.054-1.413
			C9.237,4.427,8.605,4.451,8.23,4.857L6.188,7.06L5.734,6.651c-0.409-0.37-1.041-0.338-1.412,0.072
			c-0.37,0.41-0.338,1.043,0.072,1.412L5.57,9.196z"/>
		<path style="&st0;" d="M7,14c3.859,0,7-3.141,7-7s-3.141-7-7-7S0,3.141,0,7S3.141,14,7,14z M7,2c2.757,0,5,2.243,5,5s-2.243,5-5,5
			S2,9.757,2,7S4.243,2,7,2z"/>
		<path style="&st0;" d="M45,20H19c-0.553,0-1,0.447-1,1s0.447,1,1,1h26c0.553,0,1-0.447,1-1S45.553,20,45,20z"/>
		<path style="&st0;" d="M19,26h14c0.553,0,1-0.447,1-1s-0.447-1-1-1H19c-0.553,0-1,0.447-1,1S18.447,26,19,26z"/>
		<path style="&st0;" d="M8.23,20.857L6.188,23.06l-0.453-0.409c-0.409-0.37-1.041-0.339-1.412,0.072
			c-0.37,0.41-0.338,1.043,0.072,1.412l1.176,1.06l0,0l0,0l0.01,0.009c0.061,0.055,0.133,0.086,0.202,0.123
			c0.039,0.021,0.072,0.053,0.113,0.069c0.115,0.044,0.235,0.066,0.355,0.066c0.135,0,0.27-0.028,0.396-0.082
			c0.038-0.016,0.066-0.051,0.102-0.072c0.082-0.048,0.167-0.092,0.235-0.166l2.714-2.926c0.375-0.404,0.352-1.037-0.054-1.413
			C9.237,20.427,8.605,20.451,8.23,20.857z"/>
		<path style="&st0;" d="M7.014,16c-3.859,0-7,3.141-7,7s3.141,7,7,7s7-3.141,7-7S10.873,16,7.014,16z M7.014,28
			c-2.757,0-5-2.243-5-5s2.243-5,5-5s5,2.243,5,5S9.771,28,7.014,28z"/>
		<path style="&st0;" d="M8.23,36.857L6.188,39.06l-0.453-0.409c-0.409-0.369-1.041-0.339-1.412,0.072
			c-0.37,0.41-0.338,1.043,0.072,1.412l1.176,1.06l0,0l0,0l0.01,0.009c0.061,0.055,0.133,0.086,0.202,0.123
			c0.039,0.021,0.072,0.053,0.113,0.069c0.115,0.044,0.235,0.066,0.355,0.066c0.135,0,0.27-0.028,0.396-0.082
			c0.038-0.016,0.066-0.051,0.102-0.072c0.082-0.048,0.167-0.092,0.235-0.166l2.714-2.926c0.375-0.404,0.352-1.037-0.054-1.413
			C9.237,36.427,8.605,36.451,8.23,36.857z"/>
		<path style="&st0;" d="M7.014,32c-3.859,0-7,3.141-7,7s3.141,7,7,7s7-3.141,7-7S10.873,32,7.014,32z M7.014,44
			c-2.757,0-5-2.243-5-5s2.243-5,5-5s5,2.243,5,5S9.771,44,7.014,44z"/>
		<path style="&st0;" d="M45,37H19c-0.553,0-1,0.447-1,1s0.447,1,1,1h26c0.553,0,1-0.447,1-1S45.553,37,45,37z"/>
		<path style="&st0;" d="M33,41H19c-0.553,0-1,0.447-1,1s0.447,1,1,1h14c0.553,0,1-0.447,1-1S33.553,41,33,41z"/>
	</g>
</g>
<g id="Layer_3">
</g>
</svg>
